2014/04/23 21:53:33 [error] [exception.CHttpException.404] exception 'CHttpException' with message 'Невозможно обработать запрос "21146b63a949.html".' in /var/opt/yii/framework/web/CWebApplication.php:286
Stack trace:
#0 /var/opt/yii/framework/web/CWebApplication.php(141): CWebApplication->runController('21146b63a949.ht...')
#1 /var/opt/yii/framework/base/CApplication.php(169): CWebApplication->processRequest()
#2 /var/www/easytravel.me/index.php(12): CApplication->run()
#3 {main}
REQUEST_URI=/21146b63a949.html
---
